…
## Betting strategy 2 - Real range betting
suppressMessages(llply(ntm, function(nm) {
    dtx = varHL2[grep(nm, names(varHL2))]
    dtx1 = dtx[,3]
    tts = varHL2[c('USDJPY.Low', 'USDJPY.High', 'USDJPY.Rng', 'USDJPY.Close')]
    dtxL = dtx[,1] %>% mutate_if(is.numeric, funs(ifelse(. >= tts$USDJPY.Low, ., tts$USDJPY.Close)))
    dtxH = dtx[,2] %>% mutate_if(is.numeric, funs(ifelse(. <= tts$USDJPY.High, ., tts$USDJPY.Close)))
    dtxHL = bind_cols(dtxH, dtxL)
    dtx1 = dtxHL[,1] - dtxHL[,2]
    dtx1 %<>% mutate_if(is.numeric, funs(ifelse(tts$USDJPY.Rng >= ., 100, -100))) %>% tbl_df
    names(dtx1) = 'PL'
    data.frame(BR = rep(1000, nrow(dtx)), dtx1) %>% tbl_df %>% mutate(Bal = BR + PL)
}))
[[1]]
# A tibble: 535 x 3
#      BR    PL   Bal
#   <dbl> <dbl> <dbl>
# 1  1000   100  1100
# 2  1000   100  1100
# 3  1000   100  1100
# 4  1000   100  1100
# 5  1000   100  1100
# 6  1000   100  1100
# 7  1000   100  1100
# 8  1000   100  1100
# 9  1000   100  1100
#10  1000   100  1100
# ... with 525 more rows
…
