…
binary.com Interview Question I - Multivariate GARCH Models concludes that the multivariate will be more accurate but due to save time, here I only use univariate for models comparison.

Due to high volume of dataset, here I only use USDJPY since the variance is higher than the rest of currencies.

## Read raw dataset.
eval(parse(text = paste0(fs[1], "<- readRDS('", fls[[7]][1], "') %>% tbl_df")))

## raw dataset
Y2015W1

## # A tibble: 1,775,999 x 3
##    DateTime                  Bid   Ask
##    <fct>                   <dbl> <dbl>
##  1 01/04/2015 22:00:00.165  120.  121.
##  2 01/04/2015 22:00:00.197  120.  121.
##  3 01/04/2015 22:00:00.401  120.  121.
##  4 01/04/2015 22:00:00.712  120.  121.
##  5 01/04/2015 22:00:00.742  120.  121.
##  6 01/04/2015 22:00:00.786  120.  121.
##  7 01/04/2015 22:00:00.920  120.  121.
##  8 01/04/2015 22:00:00.926  120.  121.
##  9 01/04/2015 22:00:01.253  120.  121.
## 10 01/04/2015 22:00:01.259  120.  121.
## # ... with 1,775,989 more rows
…
Source : 11.1 Complex seasonality

## Convert the univariate price to be OHLC price in `minutes` unit.
Y2015W1_min1 <- Y2015W1 %>% 
  convertOHLC(combine = TRUE, mean = TRUE, .unit = t.unit[2]) %>% 
  bind_rows #combined `ask/bid` price
Y2015W1_min1

## # A tibble: 7,192 x 5
##    index                open  high   low close
##    <dttm>              <dbl> <dbl> <dbl> <dbl>
##  1 2015-01-05 00:01:00  121.  121.  120.  121.
##  2 2015-01-05 00:02:00  121.  121.  121.  121.
##  3 2015-01-05 00:03:00  121.  121.  121.  121.
##  4 2015-01-05 00:04:00  121.  121.  121.  121.
##  5 2015-01-05 00:05:00  121.  121.  120.  121.
##  6 2015-01-05 00:06:00  121.  121.  120.  121.
##  7 2015-01-05 00:07:00  121.  121.  120.  121.
##  8 2015-01-05 00:08:00  121.  121.  121.  121.
##  9 2015-01-05 00:09:00  121.  121.  121.  121.
## 10 2015-01-05 00:10:00  121.  121.  121.  121.
## # ... with 7,182 more rows
…
## The daylight saving convertion in not tally.
tsz <- readRDS('C:/Users/scibr/Documents/GitHub/scibrokes/real-time-fxcm/data/USDJPY/tsz.rds') %>% 
  dplyr::filter(index >= ymd_hms('2015-01-05 00:00:00', tz = 'Europe/Athens'))
tsz

## # A tibble: 368 x 6
##    index                open  high   low close diff       
##    <dttm>              <dbl> <dbl> <dbl> <dbl> <time>     
##  1 2015-01-05 00:01:00  121.  121.  120.  121. "  NA mins"
##  2 2015-01-09 23:59:00  119.  119.  119.  119. 7198 mins  
##  3 2015-01-12 00:01:00  118.  118.  118.  118. "  NA mins"
##  4 2015-01-16 23:57:00  117.  118.  117.  118. 7196 mins  
##  5 2015-01-19 00:01:00  117.  117.  117.  117. "  NA mins"
##  6 2015-01-23 23:59:00  118.  118.  118.  118. 7198 mins  
##  7 2015-01-26 00:01:00  118.  118.  117.  118. "  NA mins"
##  8 2015-01-30 23:59:00  118.  118.  117.  118. 7198 mins  
##  9 2015-02-02 00:01:00  117.  117.  117.  117. "  NA mins"
## 10 2015-02-06 23:59:00  119.  119.  119.  119. 7198 mins  
## # ... with 358 more rows
…
fs1 <- list.files('C:/Users/scibr/Documents/GitHub/scibrokes/real-time-fxcm/data/USDJPY', pattern = '^Y[0-9]{4}W[0-9]{1,2}_m1.rds$') %>% str_replace_all('.rds', '')

## Read raw dataset.
#'@ eval(parse(text = paste0(fs, "<- readRDS('", fls[[7]], "')")))

## Read raw dataset.
eval(parse(text = paste0(fs1[1], "<- readRDS('", fls1[[5]][1], "') %>% tbl_df")))

## raw dataset
Y2015W1_m1

## # A tibble: 7,200 x 9
##    DateTi~ BidOpen BidHigh BidLow BidClose AskOpen AskHigh AskLow AskClose
##    <fct>     <dbl>   <dbl>  <dbl>    <dbl>   <dbl>   <dbl>  <dbl>    <dbl>
##  1 01/04/~    120.    121.   120.     121.    121.    121.   121.     121.
##  2 01/04/~    121.    121.   120.     121.    121.    121.   121.     121.
##  3 01/04/~    121.    121.   121.     121.    121.    121.   121.     121.
##  4 01/04/~    121.    121.   121.     121.    121.    121.   121.     121.
##  5 01/04/~    121.    121.   120.     121.    121.    121.   121.     121.
##  6 01/04/~    121.    121.   120.     120.    121.    121.   121.     121.
##  7 01/04/~    120.    121.   120.     121.    121.    121.   120.     121.
##  8 01/04/~    121.    121.   121.     121.    121.    121.   121.     121.
##  9 01/04/~    121.    121.   121.     121.    121.    121.   121.     121.
## 10 01/04/~    121.    121.   121.     121.    121.    121.   121.     121.
## # ... with 7,190 more rows
…
## The daylight saving convertion in not tally.
tsz2 <- readRDS('C:/Users/scibr/Documents/GitHub/scibrokes/real-time-fxcm/data/USDJPY/tsz2.rds') %>% dplyr::rename(index = DateTime) %>% 
  dplyr::filter(index >= ymd_hms('2015-01-05 00:00:00', tz = 'Europe/Athens'))
tsz2

## # A tibble: 366 x 10
##    index               BidOpen BidHigh BidLow BidClose AskOpen AskHigh
##    <dttm>                <dbl>   <dbl>  <dbl>    <dbl>   <dbl>   <dbl>
##  1 2015-01-05 00:00:00    120.    121.   120.     121.    121.    121.
##  2 2015-01-09 23:59:00    119.    119.   118.     118.    119.    119.
##  3 2015-01-12 00:00:00    118.    118.   118.     118.    118.    118.
##  4 2015-01-16 23:56:00    117.    118.   117.     118.    117.    118.
##  5 2015-01-19 00:00:00    117.    117.   117.     117.    117.    118.
##  6 2015-01-23 23:58:00    118.    118.   118.     118.    118.    118.
##  7 2015-01-26 00:00:00    118.    118.   117.     118.    118.    118.
##  8 2015-01-30 23:58:00    117.    118.   117.     118.    118.    118.
##  9 2015-02-02 00:00:00    117.    117.   117.     117.    117.    117.
## 10 2015-02-06 23:59:00    119.    119.   119.     119.    119.    119.
## # ... with 356 more rows, and 3 more variables: AskLow <dbl>,
## #   AskClose <dbl>, diff <time>
…
binary.com 面试试题 I - 数据缺失值管理 compares the missing values dataset and refill the missing value, the paper concludes that the repaired dataset is workable since the MSE is very low. The paper compares tick-data-to-1min-data and also 1min-data where both datasets gather from FXCM.

## Execute below codes and save it to save the time.
## read tick-data and convert to 1 min dataset.
# dc <- llply(fls[[7]], function(x) {
#     y <- readRDS(x) %>% convertOHLC(combine = TRUE, mean = TRUE, .unit = t.unit[2])
#     y %>% dplyr::count(index)
# })
# 
# saveRDS(dc, 'C:/Users/scibr/Documents/GitHub/scibrokes/real-time-fxcm/data/USDJPY/count_tick_data_1min.rds')
dc <- readRDS('C:/Users/scibr/Documents/GitHub/scibrokes/real-time-fxcm/data/USDJPY/count_tick_data_1min.rds')
dc %>% ldply(nrow) %>% tbl_df

## # A tibble: 185 x 1
##       V1
##    <int>
##  1  7192
##  2  7176
##  3  7152
##  4  7160
##  5  6999
##  6  7053
##  7  7088
##  8  7117
##  9  7077
## 10  7036
## # ... with 175 more rows
…
Above tables show the dataset is incompleted.

mean(tsz$diff, na.rm=TRUE)

## Time difference of 6886.299 mins

mean(tsz2$diff, na.rm=TRUE)

## Time difference of 7144.601 mins

left_join(tsz[c(1, ncol(tsz))], tsz2[c(1, ncol(tsz2))])

## Joining, by = c("index", "diff")

## # A tibble: 368 x 2
##    index               diff       
##    <dttm>              <time>     
##  1 2015-01-05 00:01:00 "  NA mins"
##  2 2015-01-09 23:59:00 7198 mins  
##  3 2015-01-12 00:01:00 "  NA mins"
##  4 2015-01-16 23:57:00 7196 mins  
##  5 2015-01-19 00:01:00 "  NA mins"
##  6 2015-01-23 23:59:00 7198 mins  
##  7 2015-01-26 00:01:00 "  NA mins"
##  8 2015-01-30 23:59:00 7198 mins  
##  9 2015-02-02 00:01:00 "  NA mins"
## 10 2015-02-06 23:59:00 7198 mins  
## # ... with 358 more rows

right_join(tsz[c(1, ncol(tsz))], tsz2[c(1, ncol(tsz2))])

## Joining, by = c("index", "diff")

## # A tibble: 366 x 2
##    index               diff       
##    <dttm>              <time>     
##  1 2015-01-05 00:00:00 "  NA mins"
##  2 2015-01-09 23:59:00 7199 mins  
##  3 2015-01-12 00:00:00 "  NA mins"
##  4 2015-01-16 23:56:00 7196 mins  
##  5 2015-01-19 00:00:00 "  NA mins"
##  6 2015-01-23 23:58:00 7198 mins  
##  7 2015-01-26 00:00:00 "  NA mins"
##  8 2015-01-30 23:58:00 7198 mins  
##  9 2015-02-02 00:00:00 "  NA mins"
## 10 2015-02-06 23:59:00 7199 mins  
## # ... with 356 more rows
…
