…
data_tm1 %<>% 
  ddply(.(year, week), function(x) {
       x %>% fill(year, week, BidOpen, BidHigh, BidLow, BidClose, 
                  AskOpen, AskHigh, AskLow, AskClose) %>% #default direction down
             fill(year, week, BidOpen, BidHigh, BidLow, BidClose, 
                  AskOpen, AskHigh, AskLow, AskClose, .direction = 'up')
    }) %>% as_tibble
#> data_m1 %>% anyNA
#[1] TRUE
#> data_m1 %>% filter_all(any_vars(is.na(.)))
## A tibble: 7,200 x 11
#   index                year  week BidOpen BidHigh BidLow BidClose AskOpen AskHigh AskLow AskClose
#   <dttm>              <dbl> <dbl>   <dbl>   <dbl>  <dbl>    <dbl>   <dbl>   <dbl>  <dbl>    <dbl>
# 1 2018-01-02 00:01:00  2017    53      NA      NA     NA       NA      NA      NA     NA       NA
# 2 2018-01-02 00:02:00  2017    53      NA      NA     NA       NA      NA      NA     NA       NA
# 3 2018-01-02 00:03:00  2017    53      NA      NA     NA       NA      NA      NA     NA       NA
# 4 2018-01-02 00:04:00  2017    53      NA      NA     NA       NA      NA      NA     NA       NA
# 5 2018-01-02 00:05:00  2017    53      NA      NA     NA       NA      NA      NA     NA       NA
# 6 2018-01-02 00:06:00  2017    53      NA      NA     NA       NA      NA      NA     NA       NA
# 7 2018-01-02 00:07:00  2017    53      NA      NA     NA       NA      NA      NA     NA       NA
# 8 2018-01-02 00:08:00  2017    53      NA      NA     NA       NA      NA      NA     NA       NA
# 9 2018-01-02 00:09:00  2017    53      NA      NA     NA       NA      NA      NA     NA       NA
#10 2018-01-02 00:10:00  2017    53      NA      NA     NA       NA      NA      NA     NA       NA
## ... with 7,190 more rows
…
