…
    mutate(
        Fct.High = round(Fct.High, 3), 
        Fct.Low = round(Fct.Low, 3), 
        Hi = ifelse(High >= Bid, 1, 0), 
        Lo = ifelse(Low >= Ask, 1, 0)) %>% 
    tbl_df %>% 
    select(-Date) %>% 
    mutate(Buy1 = ifelse(Fct.High >= High, 1, 0), 
           Buy2 = ifelse(Fct.High >= Bid, 1, 0), 
           Buy3 = ifelse(Fct.High >= Hi, 1, 0), 
           Sell1 = ifelse(Fct.Low <= Low, 1, 0), 
           Sell2 = ifelse(Fct.Low <= Ask, 1, 0), 
           Sell3 = ifelse(Fct.Low <= Lo, 1, 0)) %>% 
    select(-High, -Low, -Close)
## A tibble: 1,244 x 14
#   DateTime               sq   Bid   Ask Fct.High Fct.Low    Hi    Lo  Buy1  Buy2  Buy3 Sell1 Sell2 Sell3
#   <dttm>              <int> <dbl> <dbl>    <dbl>   <dbl> <dbl> <dbl> <dbl> <dbl> <dbl> <dbl> <dbl> <dbl>
# 1 2016-01-05 03:06:08     1  120.   NA      120.    119.     0    NA     1     1     1     0    NA    NA
# 2 2016-01-05 12:22:55     4   NA   119.     120.    119.    NA     1     1    NA    NA     0     0     0
# 3 2016-01-06 00:07:16     2  119.   NA      120.    119.     0    NA     1     1     1     0    NA    NA
# 4 2016-01-06 11:38:17     3   NA   118.     120.    119.    NA     1     1    NA    NA     0     0     0
# 5 2016-01-07 01:16:01     2  119.   NA      120.    119.     0    NA     1     1     1     0    NA    NA
# 6 2016-01-07 09:24:27     4   NA   117.     120.    119.    NA     1     1    NA    NA     0     0     0
# 7 2016-01-08 13:30:07     2  119.   NA      119.    119.     0    NA     1     1     1     0    NA    NA
# 8 2016-01-08 21:57:33     3   NA   117.     119.    119.    NA     1     1    NA    NA     0     0     0
# 9 2016-01-11 01:34:30     2   NA   117.     120.    119.    NA     1     1    NA    NA     0     0     0
#10 2016-01-11 13:37:52     4  118.   NA      120.    119.     0    NA     1     1     1     0    NA    NA
## ... with 1,234 more rows
```
…
